\@ifundefined {etoctocstyle}{\let \etoc@startlocaltoc \@gobble \let \etoc@settocdepth \@gobble \let \etoc@depthtag \@gobble }{}
\contentsline {chapter}{\numberline {1}Hierarchical Index}{1}{chapter.1}
\contentsline {section}{\numberline {1.1}Class Hierarchy}{1}{section.1.1}
\contentsline {chapter}{\numberline {2}Data Structure Index}{3}{chapter.2}
\contentsline {section}{\numberline {2.1}Data Structures}{3}{section.2.1}
\contentsline {chapter}{\numberline {3}File Index}{5}{chapter.3}
\contentsline {section}{\numberline {3.1}File List}{5}{section.3.1}
\contentsline {chapter}{\numberline {4}Data Structure Documentation}{7}{chapter.4}
\contentsline {section}{\numberline {4.1}Dns\discretionary {\unhbox \voidb@x \hbox {\relax \fontsize {7}{8}\selectfont $\leftarrow \joinrel \rhook $}}{}{}Wire\discretionary {\unhbox \voidb@x \hbox {\relax \fontsize {7}{8}\selectfont $\leftarrow \joinrel \rhook $}}{}{}Formatter Class Reference}{7}{section.4.1}
\contentsline {subsection}{\numberline {4.1.1}Detailed Description}{8}{subsection.4.1.1}
\contentsline {subsection}{\numberline {4.1.2}Constructor \& Destructor Documentation}{8}{subsection.4.1.2}
\contentsline {subsubsection}{\numberline {4.1.2.1}DnsWireFormatter()}{8}{subsubsection.4.1.2.1}
\contentsline {subsubsection}{\numberline {4.1.2.2}$\sim $DnsWireFormatter()}{8}{subsubsection.4.1.2.2}
\contentsline {subsection}{\numberline {4.1.3}Member Function Documentation}{8}{subsection.4.1.3}
\contentsline {subsubsection}{\numberline {4.1.3.1}convertToPresentationDataUtil()}{8}{subsubsection.4.1.3.1}
\contentsline {subsubsection}{\numberline {4.1.3.2}convertWireToPresentationData()}{9}{subsubsection.4.1.3.2}
\contentsline {subsubsection}{\numberline {4.1.3.3}getDNSVectorFromWireData()}{9}{subsubsection.4.1.3.3}
\contentsline {subsubsection}{\numberline {4.1.3.4}getEncodedChar()}{10}{subsubsection.4.1.3.4}
\contentsline {subsubsection}{\numberline {4.1.3.5}getFirstDNSNameFromWireData()}{10}{subsubsection.4.1.3.5}
\contentsline {subsubsection}{\numberline {4.1.3.6}getReverseDNSName()}{11}{subsubsection.4.1.3.6}
\contentsline {subsubsection}{\numberline {4.1.3.7}sortDNSNames()}{11}{subsubsection.4.1.3.7}
\contentsline {section}{\numberline {4.2}Test\discretionary {\unhbox \voidb@x \hbox {\relax \fontsize {7}{8}\selectfont $\leftarrow \joinrel \rhook $}}{}{}D\discretionary {\unhbox \voidb@x \hbox {\relax \fontsize {7}{8}\selectfont $\leftarrow \joinrel \rhook $}}{}{}N\discretionary {\unhbox \voidb@x \hbox {\relax \fontsize {7}{8}\selectfont $\leftarrow \joinrel \rhook $}}{}{}S\discretionary {\unhbox \voidb@x \hbox {\relax \fontsize {7}{8}\selectfont $\leftarrow \joinrel \rhook $}}{}{}Wire\discretionary {\unhbox \voidb@x \hbox {\relax \fontsize {7}{8}\selectfont $\leftarrow \joinrel \rhook $}}{}{}Formatter Class Reference}{12}{section.4.2}
\contentsline {subsection}{\numberline {4.2.1}Detailed Description}{12}{subsection.4.2.1}
\contentsline {subsection}{\numberline {4.2.2}Constructor \& Destructor Documentation}{12}{subsection.4.2.2}
\contentsline {subsubsection}{\numberline {4.2.2.1}TestDNSWireFormatter()}{12}{subsubsection.4.2.2.1}
\contentsline {subsubsection}{\numberline {4.2.2.2}$\sim $TestDNSWireFormatter()}{13}{subsubsection.4.2.2.2}
\contentsline {subsection}{\numberline {4.2.3}Member Function Documentation}{13}{subsection.4.2.3}
\contentsline {subsubsection}{\numberline {4.2.3.1}SetUp()}{13}{subsubsection.4.2.3.1}
\contentsline {subsubsection}{\numberline {4.2.3.2}TearDown()}{13}{subsubsection.4.2.3.2}
\contentsline {subsection}{\numberline {4.2.4}Field Documentation}{13}{subsection.4.2.4}
\contentsline {subsubsection}{\numberline {4.2.4.1}m\_dnsWireFormatter}{13}{subsubsection.4.2.4.1}
\contentsline {chapter}{\numberline {5}File Documentation}{15}{chapter.5}
\contentsline {section}{\numberline {5.1}dns\discretionary {\unhbox \voidb@x \hbox {\relax \fontsize {7}{8}\selectfont $\leftarrow \joinrel \rhook $}}{}{}Wire\discretionary {\unhbox \voidb@x \hbox {\relax \fontsize {7}{8}\selectfont $\leftarrow \joinrel \rhook $}}{}{}Formatter.\discretionary {\unhbox \voidb@x \hbox {\relax \fontsize {7}{8}\selectfont $\leftarrow \joinrel \rhook $}}{}{}cpp File Reference}{15}{section.5.1}
\contentsline {subsection}{\numberline {5.1.1}Variable Documentation}{15}{subsection.5.1.1}
\contentsline {subsubsection}{\numberline {5.1.1.1}MAX\_NUMBER\_LABELS}{15}{subsubsection.5.1.1.1}
\contentsline {subsubsection}{\numberline {5.1.1.2}MAX\_NUMBER\_OCTETS}{16}{subsubsection.5.1.1.2}
\contentsline {subsubsection}{\numberline {5.1.1.3}MAX\_NUMBER\_OCTETS\_PER\_LABEL}{16}{subsubsection.5.1.1.3}
\contentsline {subsubsection}{\numberline {5.1.1.4}ROOT\_OCTET\_VALUE}{16}{subsubsection.5.1.1.4}
\contentsline {section}{\numberline {5.2}dns\discretionary {\unhbox \voidb@x \hbox {\relax \fontsize {7}{8}\selectfont $\leftarrow \joinrel \rhook $}}{}{}Wire\discretionary {\unhbox \voidb@x \hbox {\relax \fontsize {7}{8}\selectfont $\leftarrow \joinrel \rhook $}}{}{}Formatter.\discretionary {\unhbox \voidb@x \hbox {\relax \fontsize {7}{8}\selectfont $\leftarrow \joinrel \rhook $}}{}{}h File Reference}{16}{section.5.2}
\contentsline {subsection}{\numberline {5.2.1}Enumeration Type Documentation}{16}{subsection.5.2.1}
\contentsline {subsubsection}{\numberline {5.2.1.1}RESULT}{16}{subsubsection.5.2.1.1}
\contentsline {section}{\numberline {5.3}main.\discretionary {\unhbox \voidb@x \hbox {\relax \fontsize {7}{8}\selectfont $\leftarrow \joinrel \rhook $}}{}{}cpp File Reference}{17}{section.5.3}
\contentsline {subsection}{\numberline {5.3.1}Function Documentation}{17}{subsection.5.3.1}
\contentsline {subsubsection}{\numberline {5.3.1.1}displayUsageMessage()}{17}{subsubsection.5.3.1.1}
\contentsline {subsubsection}{\numberline {5.3.1.2}main()}{17}{subsubsection.5.3.1.2}
\contentsline {section}{\numberline {5.4}main.\discretionary {\unhbox \voidb@x \hbox {\relax \fontsize {7}{8}\selectfont $\leftarrow \joinrel \rhook $}}{}{}cpp File Reference}{18}{section.5.4}
\contentsline {subsection}{\numberline {5.4.1}Function Documentation}{18}{subsection.5.4.1}
\contentsline {subsubsection}{\numberline {5.4.1.1}main()}{18}{subsubsection.5.4.1.1}
\contentsline {section}{\numberline {5.5}test\discretionary {\unhbox \voidb@x \hbox {\relax \fontsize {7}{8}\selectfont $\leftarrow \joinrel \rhook $}}{}{}D\discretionary {\unhbox \voidb@x \hbox {\relax \fontsize {7}{8}\selectfont $\leftarrow \joinrel \rhook $}}{}{}N\discretionary {\unhbox \voidb@x \hbox {\relax \fontsize {7}{8}\selectfont $\leftarrow \joinrel \rhook $}}{}{}S\discretionary {\unhbox \voidb@x \hbox {\relax \fontsize {7}{8}\selectfont $\leftarrow \joinrel \rhook $}}{}{}Wire\discretionary {\unhbox \voidb@x \hbox {\relax \fontsize {7}{8}\selectfont $\leftarrow \joinrel \rhook $}}{}{}Formatter.\discretionary {\unhbox \voidb@x \hbox {\relax \fontsize {7}{8}\selectfont $\leftarrow \joinrel \rhook $}}{}{}cpp File Reference}{18}{section.5.5}
\contentsline {subsection}{\numberline {5.5.1}Function Documentation}{19}{subsection.5.5.1}
\contentsline {subsubsection}{\numberline {5.5.1.1}TEST\_F()\hspace {0.1cm}{\relax \fontsize {8}{9.5}\selectfont \abovedisplayskip 6\p@ plus2\p@ minus4\p@ \abovedisplayshortskip \z@ plus\p@ \belowdisplayshortskip 3\p@ plus\p@ minus2\p@ \def \leftmargin \leftmargini \parsep 4\p@ plus2\p@ minus\p@ \topsep 8\p@ plus2\p@ minus4\p@ \itemsep 4\p@ plus2\p@ minus\p@ {\leftmargin \leftmargini \topsep 3\p@ plus\p@ minus\p@ \parsep 2\p@ plus\p@ minus\p@ \itemsep \parsep }\belowdisplayskip \abovedisplayskip \ttfamily [1/30]}}{20}{subsubsection.5.5.1.1}
\contentsline {subsubsection}{\numberline {5.5.1.2}TEST\_F()\hspace {0.1cm}{\relax \fontsize {8}{9.5}\selectfont \abovedisplayskip 6\p@ plus2\p@ minus4\p@ \abovedisplayshortskip \z@ plus\p@ \belowdisplayshortskip 3\p@ plus\p@ minus2\p@ \def \leftmargin \leftmargini \parsep 4\p@ plus2\p@ minus\p@ \topsep 8\p@ plus2\p@ minus4\p@ \itemsep 4\p@ plus2\p@ minus\p@ {\leftmargin \leftmargini \topsep 3\p@ plus\p@ minus\p@ \parsep 2\p@ plus\p@ minus\p@ \itemsep \parsep }\belowdisplayskip \abovedisplayskip \ttfamily [2/30]}}{20}{subsubsection.5.5.1.2}
\contentsline {subsubsection}{\numberline {5.5.1.3}TEST\_F()\hspace {0.1cm}{\relax \fontsize {8}{9.5}\selectfont \abovedisplayskip 6\p@ plus2\p@ minus4\p@ \abovedisplayshortskip \z@ plus\p@ \belowdisplayshortskip 3\p@ plus\p@ minus2\p@ \def \leftmargin \leftmargini \parsep 4\p@ plus2\p@ minus\p@ \topsep 8\p@ plus2\p@ minus4\p@ \itemsep 4\p@ plus2\p@ minus\p@ {\leftmargin \leftmargini \topsep 3\p@ plus\p@ minus\p@ \parsep 2\p@ plus\p@ minus\p@ \itemsep \parsep }\belowdisplayskip \abovedisplayskip \ttfamily [3/30]}}{20}{subsubsection.5.5.1.3}
\contentsline {subsubsection}{\numberline {5.5.1.4}TEST\_F()\hspace {0.1cm}{\relax \fontsize {8}{9.5}\selectfont \abovedisplayskip 6\p@ plus2\p@ minus4\p@ \abovedisplayshortskip \z@ plus\p@ \belowdisplayshortskip 3\p@ plus\p@ minus2\p@ \def \leftmargin \leftmargini \parsep 4\p@ plus2\p@ minus\p@ \topsep 8\p@ plus2\p@ minus4\p@ \itemsep 4\p@ plus2\p@ minus\p@ {\leftmargin \leftmargini \topsep 3\p@ plus\p@ minus\p@ \parsep 2\p@ plus\p@ minus\p@ \itemsep \parsep }\belowdisplayskip \abovedisplayskip \ttfamily [4/30]}}{21}{subsubsection.5.5.1.4}
\contentsline {subsubsection}{\numberline {5.5.1.5}TEST\_F()\hspace {0.1cm}{\relax \fontsize {8}{9.5}\selectfont \abovedisplayskip 6\p@ plus2\p@ minus4\p@ \abovedisplayshortskip \z@ plus\p@ \belowdisplayshortskip 3\p@ plus\p@ minus2\p@ \def \leftmargin \leftmargini \parsep 4\p@ plus2\p@ minus\p@ \topsep 8\p@ plus2\p@ minus4\p@ \itemsep 4\p@ plus2\p@ minus\p@ {\leftmargin \leftmargini \topsep 3\p@ plus\p@ minus\p@ \parsep 2\p@ plus\p@ minus\p@ \itemsep \parsep }\belowdisplayskip \abovedisplayskip \ttfamily [5/30]}}{21}{subsubsection.5.5.1.5}
\contentsline {subsubsection}{\numberline {5.5.1.6}TEST\_F()\hspace {0.1cm}{\relax \fontsize {8}{9.5}\selectfont \abovedisplayskip 6\p@ plus2\p@ minus4\p@ \abovedisplayshortskip \z@ plus\p@ \belowdisplayshortskip 3\p@ plus\p@ minus2\p@ \def \leftmargin \leftmargini \parsep 4\p@ plus2\p@ minus\p@ \topsep 8\p@ plus2\p@ minus4\p@ \itemsep 4\p@ plus2\p@ minus\p@ {\leftmargin \leftmargini \topsep 3\p@ plus\p@ minus\p@ \parsep 2\p@ plus\p@ minus\p@ \itemsep \parsep }\belowdisplayskip \abovedisplayskip \ttfamily [6/30]}}{21}{subsubsection.5.5.1.6}
\contentsline {subsubsection}{\numberline {5.5.1.7}TEST\_F()\hspace {0.1cm}{\relax \fontsize {8}{9.5}\selectfont \abovedisplayskip 6\p@ plus2\p@ minus4\p@ \abovedisplayshortskip \z@ plus\p@ \belowdisplayshortskip 3\p@ plus\p@ minus2\p@ \def \leftmargin \leftmargini \parsep 4\p@ plus2\p@ minus\p@ \topsep 8\p@ plus2\p@ minus4\p@ \itemsep 4\p@ plus2\p@ minus\p@ {\leftmargin \leftmargini \topsep 3\p@ plus\p@ minus\p@ \parsep 2\p@ plus\p@ minus\p@ \itemsep \parsep }\belowdisplayskip \abovedisplayskip \ttfamily [7/30]}}{22}{subsubsection.5.5.1.7}
\contentsline {subsubsection}{\numberline {5.5.1.8}TEST\_F()\hspace {0.1cm}{\relax \fontsize {8}{9.5}\selectfont \abovedisplayskip 6\p@ plus2\p@ minus4\p@ \abovedisplayshortskip \z@ plus\p@ \belowdisplayshortskip 3\p@ plus\p@ minus2\p@ \def \leftmargin \leftmargini \parsep 4\p@ plus2\p@ minus\p@ \topsep 8\p@ plus2\p@ minus4\p@ \itemsep 4\p@ plus2\p@ minus\p@ {\leftmargin \leftmargini \topsep 3\p@ plus\p@ minus\p@ \parsep 2\p@ plus\p@ minus\p@ \itemsep \parsep }\belowdisplayskip \abovedisplayskip \ttfamily [8/30]}}{22}{subsubsection.5.5.1.8}
\contentsline {subsubsection}{\numberline {5.5.1.9}TEST\_F()\hspace {0.1cm}{\relax \fontsize {8}{9.5}\selectfont \abovedisplayskip 6\p@ plus2\p@ minus4\p@ \abovedisplayshortskip \z@ plus\p@ \belowdisplayshortskip 3\p@ plus\p@ minus2\p@ \def \leftmargin \leftmargini \parsep 4\p@ plus2\p@ minus\p@ \topsep 8\p@ plus2\p@ minus4\p@ \itemsep 4\p@ plus2\p@ minus\p@ {\leftmargin \leftmargini \topsep 3\p@ plus\p@ minus\p@ \parsep 2\p@ plus\p@ minus\p@ \itemsep \parsep }\belowdisplayskip \abovedisplayskip \ttfamily [9/30]}}{22}{subsubsection.5.5.1.9}
\contentsline {subsubsection}{\numberline {5.5.1.10}TEST\_F()\hspace {0.1cm}{\relax \fontsize {8}{9.5}\selectfont \abovedisplayskip 6\p@ plus2\p@ minus4\p@ \abovedisplayshortskip \z@ plus\p@ \belowdisplayshortskip 3\p@ plus\p@ minus2\p@ \def \leftmargin \leftmargini \parsep 4\p@ plus2\p@ minus\p@ \topsep 8\p@ plus2\p@ minus4\p@ \itemsep 4\p@ plus2\p@ minus\p@ {\leftmargin \leftmargini \topsep 3\p@ plus\p@ minus\p@ \parsep 2\p@ plus\p@ minus\p@ \itemsep \parsep }\belowdisplayskip \abovedisplayskip \ttfamily [10/30]}}{23}{subsubsection.5.5.1.10}
\contentsline {subsubsection}{\numberline {5.5.1.11}TEST\_F()\hspace {0.1cm}{\relax \fontsize {8}{9.5}\selectfont \abovedisplayskip 6\p@ plus2\p@ minus4\p@ \abovedisplayshortskip \z@ plus\p@ \belowdisplayshortskip 3\p@ plus\p@ minus2\p@ \def \leftmargin \leftmargini \parsep 4\p@ plus2\p@ minus\p@ \topsep 8\p@ plus2\p@ minus4\p@ \itemsep 4\p@ plus2\p@ minus\p@ {\leftmargin \leftmargini \topsep 3\p@ plus\p@ minus\p@ \parsep 2\p@ plus\p@ minus\p@ \itemsep \parsep }\belowdisplayskip \abovedisplayskip \ttfamily [11/30]}}{23}{subsubsection.5.5.1.11}
\contentsline {subsubsection}{\numberline {5.5.1.12}TEST\_F()\hspace {0.1cm}{\relax \fontsize {8}{9.5}\selectfont \abovedisplayskip 6\p@ plus2\p@ minus4\p@ \abovedisplayshortskip \z@ plus\p@ \belowdisplayshortskip 3\p@ plus\p@ minus2\p@ \def \leftmargin \leftmargini \parsep 4\p@ plus2\p@ minus\p@ \topsep 8\p@ plus2\p@ minus4\p@ \itemsep 4\p@ plus2\p@ minus\p@ {\leftmargin \leftmargini \topsep 3\p@ plus\p@ minus\p@ \parsep 2\p@ plus\p@ minus\p@ \itemsep \parsep }\belowdisplayskip \abovedisplayskip \ttfamily [12/30]}}{23}{subsubsection.5.5.1.12}
\contentsline {subsubsection}{\numberline {5.5.1.13}TEST\_F()\hspace {0.1cm}{\relax \fontsize {8}{9.5}\selectfont \abovedisplayskip 6\p@ plus2\p@ minus4\p@ \abovedisplayshortskip \z@ plus\p@ \belowdisplayshortskip 3\p@ plus\p@ minus2\p@ \def \leftmargin \leftmargini \parsep 4\p@ plus2\p@ minus\p@ \topsep 8\p@ plus2\p@ minus4\p@ \itemsep 4\p@ plus2\p@ minus\p@ {\leftmargin \leftmargini \topsep 3\p@ plus\p@ minus\p@ \parsep 2\p@ plus\p@ minus\p@ \itemsep \parsep }\belowdisplayskip \abovedisplayskip \ttfamily [13/30]}}{24}{subsubsection.5.5.1.13}
\contentsline {subsubsection}{\numberline {5.5.1.14}TEST\_F()\hspace {0.1cm}{\relax \fontsize {8}{9.5}\selectfont \abovedisplayskip 6\p@ plus2\p@ minus4\p@ \abovedisplayshortskip \z@ plus\p@ \belowdisplayshortskip 3\p@ plus\p@ minus2\p@ \def \leftmargin \leftmargini \parsep 4\p@ plus2\p@ minus\p@ \topsep 8\p@ plus2\p@ minus4\p@ \itemsep 4\p@ plus2\p@ minus\p@ {\leftmargin \leftmargini \topsep 3\p@ plus\p@ minus\p@ \parsep 2\p@ plus\p@ minus\p@ \itemsep \parsep }\belowdisplayskip \abovedisplayskip \ttfamily [14/30]}}{24}{subsubsection.5.5.1.14}
\contentsline {subsubsection}{\numberline {5.5.1.15}TEST\_F()\hspace {0.1cm}{\relax \fontsize {8}{9.5}\selectfont \abovedisplayskip 6\p@ plus2\p@ minus4\p@ \abovedisplayshortskip \z@ plus\p@ \belowdisplayshortskip 3\p@ plus\p@ minus2\p@ \def \leftmargin \leftmargini \parsep 4\p@ plus2\p@ minus\p@ \topsep 8\p@ plus2\p@ minus4\p@ \itemsep 4\p@ plus2\p@ minus\p@ {\leftmargin \leftmargini \topsep 3\p@ plus\p@ minus\p@ \parsep 2\p@ plus\p@ minus\p@ \itemsep \parsep }\belowdisplayskip \abovedisplayskip \ttfamily [15/30]}}{24}{subsubsection.5.5.1.15}
\contentsline {subsubsection}{\numberline {5.5.1.16}TEST\_F()\hspace {0.1cm}{\relax \fontsize {8}{9.5}\selectfont \abovedisplayskip 6\p@ plus2\p@ minus4\p@ \abovedisplayshortskip \z@ plus\p@ \belowdisplayshortskip 3\p@ plus\p@ minus2\p@ \def \leftmargin \leftmargini \parsep 4\p@ plus2\p@ minus\p@ \topsep 8\p@ plus2\p@ minus4\p@ \itemsep 4\p@ plus2\p@ minus\p@ {\leftmargin \leftmargini \topsep 3\p@ plus\p@ minus\p@ \parsep 2\p@ plus\p@ minus\p@ \itemsep \parsep }\belowdisplayskip \abovedisplayskip \ttfamily [16/30]}}{25}{subsubsection.5.5.1.16}
\contentsline {subsubsection}{\numberline {5.5.1.17}TEST\_F()\hspace {0.1cm}{\relax \fontsize {8}{9.5}\selectfont \abovedisplayskip 6\p@ plus2\p@ minus4\p@ \abovedisplayshortskip \z@ plus\p@ \belowdisplayshortskip 3\p@ plus\p@ minus2\p@ \def \leftmargin \leftmargini \parsep 4\p@ plus2\p@ minus\p@ \topsep 8\p@ plus2\p@ minus4\p@ \itemsep 4\p@ plus2\p@ minus\p@ {\leftmargin \leftmargini \topsep 3\p@ plus\p@ minus\p@ \parsep 2\p@ plus\p@ minus\p@ \itemsep \parsep }\belowdisplayskip \abovedisplayskip \ttfamily [17/30]}}{25}{subsubsection.5.5.1.17}
\contentsline {subsubsection}{\numberline {5.5.1.18}TEST\_F()\hspace {0.1cm}{\relax \fontsize {8}{9.5}\selectfont \abovedisplayskip 6\p@ plus2\p@ minus4\p@ \abovedisplayshortskip \z@ plus\p@ \belowdisplayshortskip 3\p@ plus\p@ minus2\p@ \def \leftmargin \leftmargini \parsep 4\p@ plus2\p@ minus\p@ \topsep 8\p@ plus2\p@ minus4\p@ \itemsep 4\p@ plus2\p@ minus\p@ {\leftmargin \leftmargini \topsep 3\p@ plus\p@ minus\p@ \parsep 2\p@ plus\p@ minus\p@ \itemsep \parsep }\belowdisplayskip \abovedisplayskip \ttfamily [18/30]}}{25}{subsubsection.5.5.1.18}
\contentsline {subsubsection}{\numberline {5.5.1.19}TEST\_F()\hspace {0.1cm}{\relax \fontsize {8}{9.5}\selectfont \abovedisplayskip 6\p@ plus2\p@ minus4\p@ \abovedisplayshortskip \z@ plus\p@ \belowdisplayshortskip 3\p@ plus\p@ minus2\p@ \def \leftmargin \leftmargini \parsep 4\p@ plus2\p@ minus\p@ \topsep 8\p@ plus2\p@ minus4\p@ \itemsep 4\p@ plus2\p@ minus\p@ {\leftmargin \leftmargini \topsep 3\p@ plus\p@ minus\p@ \parsep 2\p@ plus\p@ minus\p@ \itemsep \parsep }\belowdisplayskip \abovedisplayskip \ttfamily [19/30]}}{26}{subsubsection.5.5.1.19}
\contentsline {subsubsection}{\numberline {5.5.1.20}TEST\_F()\hspace {0.1cm}{\relax \fontsize {8}{9.5}\selectfont \abovedisplayskip 6\p@ plus2\p@ minus4\p@ \abovedisplayshortskip \z@ plus\p@ \belowdisplayshortskip 3\p@ plus\p@ minus2\p@ \def \leftmargin \leftmargini \parsep 4\p@ plus2\p@ minus\p@ \topsep 8\p@ plus2\p@ minus4\p@ \itemsep 4\p@ plus2\p@ minus\p@ {\leftmargin \leftmargini \topsep 3\p@ plus\p@ minus\p@ \parsep 2\p@ plus\p@ minus\p@ \itemsep \parsep }\belowdisplayskip \abovedisplayskip \ttfamily [20/30]}}{26}{subsubsection.5.5.1.20}
\contentsline {subsubsection}{\numberline {5.5.1.21}TEST\_F()\hspace {0.1cm}{\relax \fontsize {8}{9.5}\selectfont \abovedisplayskip 6\p@ plus2\p@ minus4\p@ \abovedisplayshortskip \z@ plus\p@ \belowdisplayshortskip 3\p@ plus\p@ minus2\p@ \def \leftmargin \leftmargini \parsep 4\p@ plus2\p@ minus\p@ \topsep 8\p@ plus2\p@ minus4\p@ \itemsep 4\p@ plus2\p@ minus\p@ {\leftmargin \leftmargini \topsep 3\p@ plus\p@ minus\p@ \parsep 2\p@ plus\p@ minus\p@ \itemsep \parsep }\belowdisplayskip \abovedisplayskip \ttfamily [21/30]}}{26}{subsubsection.5.5.1.21}
\contentsline {subsubsection}{\numberline {5.5.1.22}TEST\_F()\hspace {0.1cm}{\relax \fontsize {8}{9.5}\selectfont \abovedisplayskip 6\p@ plus2\p@ minus4\p@ \abovedisplayshortskip \z@ plus\p@ \belowdisplayshortskip 3\p@ plus\p@ minus2\p@ \def \leftmargin \leftmargini \parsep 4\p@ plus2\p@ minus\p@ \topsep 8\p@ plus2\p@ minus4\p@ \itemsep 4\p@ plus2\p@ minus\p@ {\leftmargin \leftmargini \topsep 3\p@ plus\p@ minus\p@ \parsep 2\p@ plus\p@ minus\p@ \itemsep \parsep }\belowdisplayskip \abovedisplayskip \ttfamily [22/30]}}{27}{subsubsection.5.5.1.22}
\contentsline {subsubsection}{\numberline {5.5.1.23}TEST\_F()\hspace {0.1cm}{\relax \fontsize {8}{9.5}\selectfont \abovedisplayskip 6\p@ plus2\p@ minus4\p@ \abovedisplayshortskip \z@ plus\p@ \belowdisplayshortskip 3\p@ plus\p@ minus2\p@ \def \leftmargin \leftmargini \parsep 4\p@ plus2\p@ minus\p@ \topsep 8\p@ plus2\p@ minus4\p@ \itemsep 4\p@ plus2\p@ minus\p@ {\leftmargin \leftmargini \topsep 3\p@ plus\p@ minus\p@ \parsep 2\p@ plus\p@ minus\p@ \itemsep \parsep }\belowdisplayskip \abovedisplayskip \ttfamily [23/30]}}{27}{subsubsection.5.5.1.23}
\contentsline {subsubsection}{\numberline {5.5.1.24}TEST\_F()\hspace {0.1cm}{\relax \fontsize {8}{9.5}\selectfont \abovedisplayskip 6\p@ plus2\p@ minus4\p@ \abovedisplayshortskip \z@ plus\p@ \belowdisplayshortskip 3\p@ plus\p@ minus2\p@ \def \leftmargin \leftmargini \parsep 4\p@ plus2\p@ minus\p@ \topsep 8\p@ plus2\p@ minus4\p@ \itemsep 4\p@ plus2\p@ minus\p@ {\leftmargin \leftmargini \topsep 3\p@ plus\p@ minus\p@ \parsep 2\p@ plus\p@ minus\p@ \itemsep \parsep }\belowdisplayskip \abovedisplayskip \ttfamily [24/30]}}{27}{subsubsection.5.5.1.24}
\contentsline {subsubsection}{\numberline {5.5.1.25}TEST\_F()\hspace {0.1cm}{\relax \fontsize {8}{9.5}\selectfont \abovedisplayskip 6\p@ plus2\p@ minus4\p@ \abovedisplayshortskip \z@ plus\p@ \belowdisplayshortskip 3\p@ plus\p@ minus2\p@ \def \leftmargin \leftmargini \parsep 4\p@ plus2\p@ minus\p@ \topsep 8\p@ plus2\p@ minus4\p@ \itemsep 4\p@ plus2\p@ minus\p@ {\leftmargin \leftmargini \topsep 3\p@ plus\p@ minus\p@ \parsep 2\p@ plus\p@ minus\p@ \itemsep \parsep }\belowdisplayskip \abovedisplayskip \ttfamily [25/30]}}{28}{subsubsection.5.5.1.25}
\contentsline {subsubsection}{\numberline {5.5.1.26}TEST\_F()\hspace {0.1cm}{\relax \fontsize {8}{9.5}\selectfont \abovedisplayskip 6\p@ plus2\p@ minus4\p@ \abovedisplayshortskip \z@ plus\p@ \belowdisplayshortskip 3\p@ plus\p@ minus2\p@ \def \leftmargin \leftmargini \parsep 4\p@ plus2\p@ minus\p@ \topsep 8\p@ plus2\p@ minus4\p@ \itemsep 4\p@ plus2\p@ minus\p@ {\leftmargin \leftmargini \topsep 3\p@ plus\p@ minus\p@ \parsep 2\p@ plus\p@ minus\p@ \itemsep \parsep }\belowdisplayskip \abovedisplayskip \ttfamily [26/30]}}{28}{subsubsection.5.5.1.26}
\contentsline {subsubsection}{\numberline {5.5.1.27}TEST\_F()\hspace {0.1cm}{\relax \fontsize {8}{9.5}\selectfont \abovedisplayskip 6\p@ plus2\p@ minus4\p@ \abovedisplayshortskip \z@ plus\p@ \belowdisplayshortskip 3\p@ plus\p@ minus2\p@ \def \leftmargin \leftmargini \parsep 4\p@ plus2\p@ minus\p@ \topsep 8\p@ plus2\p@ minus4\p@ \itemsep 4\p@ plus2\p@ minus\p@ {\leftmargin \leftmargini \topsep 3\p@ plus\p@ minus\p@ \parsep 2\p@ plus\p@ minus\p@ \itemsep \parsep }\belowdisplayskip \abovedisplayskip \ttfamily [27/30]}}{28}{subsubsection.5.5.1.27}
\contentsline {subsubsection}{\numberline {5.5.1.28}TEST\_F()\hspace {0.1cm}{\relax \fontsize {8}{9.5}\selectfont \abovedisplayskip 6\p@ plus2\p@ minus4\p@ \abovedisplayshortskip \z@ plus\p@ \belowdisplayshortskip 3\p@ plus\p@ minus2\p@ \def \leftmargin \leftmargini \parsep 4\p@ plus2\p@ minus\p@ \topsep 8\p@ plus2\p@ minus4\p@ \itemsep 4\p@ plus2\p@ minus\p@ {\leftmargin \leftmargini \topsep 3\p@ plus\p@ minus\p@ \parsep 2\p@ plus\p@ minus\p@ \itemsep \parsep }\belowdisplayskip \abovedisplayskip \ttfamily [28/30]}}{29}{subsubsection.5.5.1.28}
\contentsline {subsubsection}{\numberline {5.5.1.29}TEST\_F()\hspace {0.1cm}{\relax \fontsize {8}{9.5}\selectfont \abovedisplayskip 6\p@ plus2\p@ minus4\p@ \abovedisplayshortskip \z@ plus\p@ \belowdisplayshortskip 3\p@ plus\p@ minus2\p@ \def \leftmargin \leftmargini \parsep 4\p@ plus2\p@ minus\p@ \topsep 8\p@ plus2\p@ minus4\p@ \itemsep 4\p@ plus2\p@ minus\p@ {\leftmargin \leftmargini \topsep 3\p@ plus\p@ minus\p@ \parsep 2\p@ plus\p@ minus\p@ \itemsep \parsep }\belowdisplayskip \abovedisplayskip \ttfamily [29/30]}}{29}{subsubsection.5.5.1.29}
\contentsline {subsubsection}{\numberline {5.5.1.30}TEST\_F()\hspace {0.1cm}{\relax \fontsize {8}{9.5}\selectfont \abovedisplayskip 6\p@ plus2\p@ minus4\p@ \abovedisplayshortskip \z@ plus\p@ \belowdisplayshortskip 3\p@ plus\p@ minus2\p@ \def \leftmargin \leftmargini \parsep 4\p@ plus2\p@ minus\p@ \topsep 8\p@ plus2\p@ minus4\p@ \itemsep 4\p@ plus2\p@ minus\p@ {\leftmargin \leftmargini \topsep 3\p@ plus\p@ minus\p@ \parsep 2\p@ plus\p@ minus\p@ \itemsep \parsep }\belowdisplayskip \abovedisplayskip \ttfamily [30/30]}}{29}{subsubsection.5.5.1.30}
\contentsline {subsection}{\numberline {5.5.2}Variable Documentation}{29}{subsection.5.5.2}
\contentsline {subsubsection}{\numberline {5.5.2.1}ROOT\_OCTET\_VALUE}{29}{subsubsection.5.5.2.1}
\contentsline {section}{\numberline {5.6}test\discretionary {\unhbox \voidb@x \hbox {\relax \fontsize {7}{8}\selectfont $\leftarrow \joinrel \rhook $}}{}{}D\discretionary {\unhbox \voidb@x \hbox {\relax \fontsize {7}{8}\selectfont $\leftarrow \joinrel \rhook $}}{}{}N\discretionary {\unhbox \voidb@x \hbox {\relax \fontsize {7}{8}\selectfont $\leftarrow \joinrel \rhook $}}{}{}S\discretionary {\unhbox \voidb@x \hbox {\relax \fontsize {7}{8}\selectfont $\leftarrow \joinrel \rhook $}}{}{}Wire\discretionary {\unhbox \voidb@x \hbox {\relax \fontsize {7}{8}\selectfont $\leftarrow \joinrel \rhook $}}{}{}Formatter.\discretionary {\unhbox \voidb@x \hbox {\relax \fontsize {7}{8}\selectfont $\leftarrow \joinrel \rhook $}}{}{}h File Reference}{30}{section.5.6}
\contentsline {chapter}{Index}{31}{section*.13}
