\relax 
\providecommand\hyper@newdestlabel[2]{}
\providecommand\HyperFirstAtBeginDocument{\AtBeginDocument}
\HyperFirstAtBeginDocument{\ifx\hyper@anchor\@undefined
\global\let\oldcontentsline\contentsline
\gdef\contentsline#1#2#3#4{\oldcontentsline{#1}{#2}{#3}}
\global\let\oldnewlabel\newlabel
\gdef\newlabel#1#2{\newlabelxx{#1}#2}
\gdef\newlabelxx#1#2#3#4#5#6{\oldnewlabel{#1}{{#2}{#3}}}
\AtEndDocument{\ifx\hyper@anchor\@undefined
\let\contentsline\oldcontentsline
\let\newlabel\oldnewlabel
\fi}
\fi}
\global\let\hyper@last\relax 
\gdef\HyperFirstAtBeginDocument#1{#1}
\providecommand\HyField@AuxAddToFields[1]{}
\providecommand\HyField@AuxAddToCoFields[2]{}
\providecommand \oddpage@label [2]{}
\@writefile{toc}{\@ifundefined {etoctocstyle}{\let \etoc@startlocaltoc \@gobble \let \etoc@settocdepth \@gobble \let \etoc@depthtag \@gobble }{}}
\@writefile{toc}{\contentsline {chapter}{\numberline {1}Hierarchical Index}{1}{chapter.1}}
\@writefile{lof}{\addvspace {10\p@ }}
\@writefile{lot}{\addvspace {10\p@ }}
\@writefile{toc}{\contentsline {section}{\numberline {1.1}Class Hierarchy}{1}{section.1.1}}
\@writefile{toc}{\contentsline {chapter}{\numberline {2}Data Structure Index}{3}{chapter.2}}
\@writefile{lof}{\addvspace {10\p@ }}
\@writefile{lot}{\addvspace {10\p@ }}
\@writefile{toc}{\contentsline {section}{\numberline {2.1}Data Structures}{3}{section.2.1}}
\@writefile{toc}{\contentsline {chapter}{\numberline {3}File Index}{5}{chapter.3}}
\@writefile{lof}{\addvspace {10\p@ }}
\@writefile{lot}{\addvspace {10\p@ }}
\@writefile{toc}{\contentsline {section}{\numberline {3.1}File List}{5}{section.3.1}}
\@writefile{toc}{\contentsline {chapter}{\numberline {4}Data Structure Documentation}{7}{chapter.4}}
\@writefile{lof}{\addvspace {10\p@ }}
\@writefile{lot}{\addvspace {10\p@ }}
\@writefile{toc}{\contentsline {section}{\numberline {4.1}Dns\discretionary {\unhbox \voidb@x \hbox {\relax \fontsize  {7}{8}\selectfont  $\leftarrow \joinrel  \rhook $}}{}{}Wire\discretionary {\unhbox \voidb@x \hbox {\relax \fontsize  {7}{8}\selectfont  $\leftarrow \joinrel  \rhook $}}{}{}Formatter Class Reference}{7}{section.4.1}}
\newlabel{classDnsWireFormatter}{{4.1}{7}{Dns\+Wire\+Formatter Class Reference}{section.4.1}{}}
\gdef \LT@i {\LT@entry 
    {3}{81.3336pt}\LT@entry 
    {3}{345.23979pt}}
\@writefile{toc}{\contentsline {subsection}{\numberline {4.1.1}Detailed Description}{8}{subsection.4.1.1}}
\@writefile{toc}{\contentsline {subsection}{\numberline {4.1.2}Constructor \& Destructor Documentation}{8}{subsection.4.1.2}}
\newlabel{classDnsWireFormatter_a2d6e8782cffb5c4c541f6961555b092b}{{4.1.2}{8}{Constructor \& Destructor Documentation}{subsection.4.1.2}{}}
\@writefile{toc}{\contentsline {subsubsection}{\numberline {4.1.2.1}DnsWireFormatter()}{8}{subsubsection.4.1.2.1}}
\newlabel{classDnsWireFormatter_a6432e10f9644508e5a2df59fdd0c4e94}{{4.1.2.1}{8}{\texorpdfstring {DnsWireFormatter()}{DnsWireFormatter()}}{subsubsection.4.1.2.1}{}}
\@writefile{toc}{\contentsline {subsubsection}{\numberline {4.1.2.2}$\sim $DnsWireFormatter()}{8}{subsubsection.4.1.2.2}}
\@writefile{toc}{\contentsline {subsection}{\numberline {4.1.3}Member Function Documentation}{8}{subsection.4.1.3}}
\newlabel{classDnsWireFormatter_af83f778978c32132967ad1aafffa1ccf}{{4.1.3}{8}{Member Function Documentation}{subsection.4.1.3}{}}
\@writefile{toc}{\contentsline {subsubsection}{\numberline {4.1.3.1}convertToPresentationDataUtil()}{8}{subsubsection.4.1.3.1}}
\gdef \LT@ii {\LT@entry 
    {3}{81.3336pt}\LT@entry 
    {3}{251.43452pt}}
\gdef \LT@iii {\LT@entry 
    {3}{69.22894pt}\LT@entry 
    {3}{353.31279pt}}
\newlabel{classDnsWireFormatter_a4ca7b95ccdd6ee7b415cb12e0c2fff68}{{4.1.3.1}{9}{\texorpdfstring {convertToPresentationDataUtil()}{convertToPresentationDataUtil()}}{table.4.1}{}}
\@writefile{toc}{\contentsline {subsubsection}{\numberline {4.1.3.2}convertWireToPresentationData()}{9}{subsubsection.4.1.3.2}}
\newlabel{classDnsWireFormatter_af744391128931f51a66b1d6c6d97a761}{{4.1.3.2}{9}{\texorpdfstring {convertWireToPresentationData()}{convertWireToPresentationData()}}{table.4.2}{}}
\@writefile{toc}{\contentsline {subsubsection}{\numberline {4.1.3.3}getDNSVectorFromWireData()}{9}{subsubsection.4.1.3.3}}
\gdef \LT@iv {\LT@entry 
    {3}{34.08463pt}\LT@entry 
    {3}{207.1289pt}}
\gdef \LT@v {\LT@entry 
    {3}{77.73384pt}\LT@entry 
    {3}{343.90762pt}}
\newlabel{classDnsWireFormatter_ac7a67ac2baeeae6715ee7e4fba158147}{{4.1.3.3}{10}{\texorpdfstring {getDNSVectorFromWireData()}{getDNSVectorFromWireData()}}{table.4.3}{}}
\@writefile{toc}{\contentsline {subsubsection}{\numberline {4.1.3.4}getEncodedChar()}{10}{subsubsection.4.1.3.4}}
\newlabel{classDnsWireFormatter_aac674d956deec6d8fc0d9e6768c38244}{{4.1.3.4}{10}{\texorpdfstring {getEncodedChar()}{getEncodedChar()}}{table.4.4}{}}
\@writefile{toc}{\contentsline {subsubsection}{\numberline {4.1.3.5}getFirstDNSNameFromWireData()}{10}{subsubsection.4.1.3.5}}
\gdef \LT@vi {\LT@entry 
    {3}{51.31041pt}\LT@entry 
    {3}{133.95166pt}}
\gdef \LT@vii {\LT@entry 
    {3}{85.67175pt}\LT@entry 
    {3}{175.5937pt}}
\newlabel{classDnsWireFormatter_a607f23e36b1469f6b68becf653ee4fb3}{{4.1.3.5}{11}{\texorpdfstring {getFirstDNSNameFromWireData()}{getFirstDNSNameFromWireData()}}{table.4.5}{}}
\@writefile{toc}{\contentsline {subsubsection}{\numberline {4.1.3.6}getReverseDNSName()}{11}{subsubsection.4.1.3.6}}
\newlabel{classDnsWireFormatter_a7b438f120c32f1abdc1bd36d1e871d34}{{4.1.3.6}{11}{\texorpdfstring {getReverseDNSName()}{getReverseDNSName()}}{table.4.6}{}}
\@writefile{toc}{\contentsline {subsubsection}{\numberline {4.1.3.7}sortDNSNames()}{11}{subsubsection.4.1.3.7}}
\@writefile{toc}{\contentsline {section}{\numberline {4.2}Test\discretionary {\unhbox \voidb@x \hbox {\relax \fontsize  {7}{8}\selectfont  $\leftarrow \joinrel  \rhook $}}{}{}D\discretionary {\unhbox \voidb@x \hbox {\relax \fontsize  {7}{8}\selectfont  $\leftarrow \joinrel  \rhook $}}{}{}N\discretionary {\unhbox \voidb@x \hbox {\relax \fontsize  {7}{8}\selectfont  $\leftarrow \joinrel  \rhook $}}{}{}S\discretionary {\unhbox \voidb@x \hbox {\relax \fontsize  {7}{8}\selectfont  $\leftarrow \joinrel  \rhook $}}{}{}Wire\discretionary {\unhbox \voidb@x \hbox {\relax \fontsize  {7}{8}\selectfont  $\leftarrow \joinrel  \rhook $}}{}{}Formatter Class Reference}{12}{section.4.2}}
\newlabel{classTestDNSWireFormatter}{{4.2}{12}{Test\+D\+N\+S\+Wire\+Formatter Class Reference}{section.4.2}{}}
\@writefile{toc}{\contentsline {subsection}{\numberline {4.2.1}Detailed Description}{12}{subsection.4.2.1}}
\@writefile{toc}{\contentsline {subsection}{\numberline {4.2.2}Constructor \& Destructor Documentation}{12}{subsection.4.2.2}}
\newlabel{classTestDNSWireFormatter_a3d2e57124faa30389fb7f9a5c13680fe}{{4.2.2}{12}{Constructor \& Destructor Documentation}{subsection.4.2.2}{}}
\@writefile{toc}{\contentsline {subsubsection}{\numberline {4.2.2.1}TestDNSWireFormatter()}{12}{subsubsection.4.2.2.1}}
\newlabel{classTestDNSWireFormatter_ae99fce6138c2cb4e461a83e1d5674fe1}{{4.2.2.1}{12}{\texorpdfstring {TestDNSWireFormatter()}{TestDNSWireFormatter()}}{subsubsection.4.2.2.1}{}}
\@writefile{toc}{\contentsline {subsubsection}{\numberline {4.2.2.2}$\sim $TestDNSWireFormatter()}{13}{subsubsection.4.2.2.2}}
\@writefile{toc}{\contentsline {subsection}{\numberline {4.2.3}Member Function Documentation}{13}{subsection.4.2.3}}
\newlabel{classTestDNSWireFormatter_a7663e36969af1801aa36df7e558c1617}{{4.2.3}{13}{Member Function Documentation}{subsection.4.2.3}{}}
\@writefile{toc}{\contentsline {subsubsection}{\numberline {4.2.3.1}SetUp()}{13}{subsubsection.4.2.3.1}}
\newlabel{classTestDNSWireFormatter_a9ac1a4ef13a3f6aedca5bf102dbd2ca6}{{4.2.3.1}{13}{\texorpdfstring {SetUp()}{SetUp()}}{subsubsection.4.2.3.1}{}}
\@writefile{toc}{\contentsline {subsubsection}{\numberline {4.2.3.2}TearDown()}{13}{subsubsection.4.2.3.2}}
\@writefile{toc}{\contentsline {subsection}{\numberline {4.2.4}Field Documentation}{13}{subsection.4.2.4}}
\newlabel{classTestDNSWireFormatter_a436ff1e0d52778408cbc50be3a7c2e4a}{{4.2.4}{13}{Field Documentation}{subsection.4.2.4}{}}
\@writefile{toc}{\contentsline {subsubsection}{\numberline {4.2.4.1}m\_dnsWireFormatter}{13}{subsubsection.4.2.4.1}}
\@writefile{toc}{\contentsline {chapter}{\numberline {5}File Documentation}{15}{chapter.5}}
\@writefile{lof}{\addvspace {10\p@ }}
\@writefile{lot}{\addvspace {10\p@ }}
\@writefile{toc}{\contentsline {section}{\numberline {5.1}dns\discretionary {\unhbox \voidb@x \hbox {\relax \fontsize  {7}{8}\selectfont  $\leftarrow \joinrel  \rhook $}}{}{}Wire\discretionary {\unhbox \voidb@x \hbox {\relax \fontsize  {7}{8}\selectfont  $\leftarrow \joinrel  \rhook $}}{}{}Formatter.\discretionary {\unhbox \voidb@x \hbox {\relax \fontsize  {7}{8}\selectfont  $\leftarrow \joinrel  \rhook $}}{}{}cpp File Reference}{15}{section.5.1}}
\newlabel{dnsWireFormatter_8cpp}{{5.1}{15}{dns\+Wire\+Formatter.\+cpp File Reference}{section.5.1}{}}
\@writefile{toc}{\contentsline {subsection}{\numberline {5.1.1}Variable Documentation}{15}{subsection.5.1.1}}
\newlabel{dnsWireFormatter_8cpp_a162b110ed2d356696f33437ffc096a18}{{5.1.1}{15}{Variable Documentation}{subsection.5.1.1}{}}
\@writefile{toc}{\contentsline {subsubsection}{\numberline {5.1.1.1}MAX\_NUMBER\_LABELS}{15}{subsubsection.5.1.1.1}}
\newlabel{dnsWireFormatter_8cpp_a1e593be7a362c65440880a401bcdefb6}{{5.1.1.1}{15}{\texorpdfstring {MAX\_NUMBER\_LABELS}{MAX\_NUMBER\_LABELS}}{subsubsection.5.1.1.1}{}}
\@writefile{toc}{\contentsline {subsubsection}{\numberline {5.1.1.2}MAX\_NUMBER\_OCTETS}{16}{subsubsection.5.1.1.2}}
\newlabel{dnsWireFormatter_8cpp_acbe0427c4d07eefabb7d00a18f9d8b51}{{5.1.1.2}{16}{\texorpdfstring {MAX\_NUMBER\_OCTETS}{MAX\_NUMBER\_OCTETS}}{subsubsection.5.1.1.2}{}}
\@writefile{toc}{\contentsline {subsubsection}{\numberline {5.1.1.3}MAX\_NUMBER\_OCTETS\_PER\_LABEL}{16}{subsubsection.5.1.1.3}}
\newlabel{dnsWireFormatter_8cpp_a7aa0ec4777558e869aa9b95a616b3b68}{{5.1.1.3}{16}{\texorpdfstring {MAX\_NUMBER\_OCTETS\_PER\_LABEL}{MAX\_NUMBER\_OCTETS\_PER\_LABEL}}{subsubsection.5.1.1.3}{}}
\@writefile{toc}{\contentsline {subsubsection}{\numberline {5.1.1.4}ROOT\_OCTET\_VALUE}{16}{subsubsection.5.1.1.4}}
\@writefile{toc}{\contentsline {section}{\numberline {5.2}dns\discretionary {\unhbox \voidb@x \hbox {\relax \fontsize  {7}{8}\selectfont  $\leftarrow \joinrel  \rhook $}}{}{}Wire\discretionary {\unhbox \voidb@x \hbox {\relax \fontsize  {7}{8}\selectfont  $\leftarrow \joinrel  \rhook $}}{}{}Formatter.\discretionary {\unhbox \voidb@x \hbox {\relax \fontsize  {7}{8}\selectfont  $\leftarrow \joinrel  \rhook $}}{}{}h File Reference}{16}{section.5.2}}
\newlabel{dnsWireFormatter_8h}{{5.2}{16}{dns\+Wire\+Formatter.\+h File Reference}{section.5.2}{}}
\@writefile{toc}{\contentsline {subsection}{\numberline {5.2.1}Enumeration Type Documentation}{16}{subsection.5.2.1}}
\newlabel{dnsWireFormatter_8h_a267a34d666f6b36c0d75007ebba6036a}{{5.2.1}{16}{Enumeration Type Documentation}{subsection.5.2.1}{}}
\@writefile{toc}{\contentsline {subsubsection}{\numberline {5.2.1.1}RESULT}{16}{subsubsection.5.2.1.1}}
\gdef \LT@viii {\LT@entry 
    {3}{192.34686pt}\LT@entry 
    {3}{262.89725pt}}
\newlabel{dnsWireFormatter_8h_a267a34d666f6b36c0d75007ebba6036aae0aa021e21dddbd6d8cecec71e9cf564}{{5.1}{17}{\texorpdfstring {RESULT}{RESULT}}{table.5.1}{}}
\newlabel{dnsWireFormatter_8h_a267a34d666f6b36c0d75007ebba6036aaf295a0c3e37c94f078e1c5476479132d}{{5.1}{17}{\texorpdfstring {RESULT}{RESULT}}{table.5.1}{}}
\newlabel{dnsWireFormatter_8h_a267a34d666f6b36c0d75007ebba6036aa4a6fe6e330220b253ce07472d9ce0ab0}{{5.1}{17}{\texorpdfstring {RESULT}{RESULT}}{table.5.1}{}}
\newlabel{dnsWireFormatter_8h_a267a34d666f6b36c0d75007ebba6036aa4ce5151d17139c33035640a34824bed4}{{5.1}{17}{\texorpdfstring {RESULT}{RESULT}}{table.5.1}{}}
\newlabel{dnsWireFormatter_8h_a267a34d666f6b36c0d75007ebba6036aa95a8d2c46b96c0c8736f6af086259f0a}{{5.1}{17}{\texorpdfstring {RESULT}{RESULT}}{table.5.1}{}}
\newlabel{dnsWireFormatter_8h_a267a34d666f6b36c0d75007ebba6036aa696b031073e74bf2cb98e5ef201d4aa3}{{5.1}{17}{\texorpdfstring {RESULT}{RESULT}}{table.5.1}{}}
\@writefile{toc}{\contentsline {section}{\numberline {5.3}main.\discretionary {\unhbox \voidb@x \hbox {\relax \fontsize  {7}{8}\selectfont  $\leftarrow \joinrel  \rhook $}}{}{}cpp File Reference}{17}{section.5.3}}
\newlabel{src_2main_8cpp}{{5.3}{17}{main.\+cpp File Reference}{section.5.3}{}}
\@writefile{toc}{\contentsline {subsection}{\numberline {5.3.1}Function Documentation}{17}{subsection.5.3.1}}
\newlabel{src_2main_8cpp_a5e4c91340f2043a804c13d47735eb6ca}{{5.3.1}{17}{Function Documentation}{subsection.5.3.1}{}}
\@writefile{toc}{\contentsline {subsubsection}{\numberline {5.3.1.1}displayUsageMessage()}{17}{subsubsection.5.3.1.1}}
\newlabel{src_2main_8cpp_a0ddf1224851353fc92bfbff6f499fa97}{{5.3.1.1}{17}{\texorpdfstring {displayUsageMessage()}{displayUsageMessage()}}{subsubsection.5.3.1.1}{}}
\@writefile{toc}{\contentsline {subsubsection}{\numberline {5.3.1.2}main()}{17}{subsubsection.5.3.1.2}}
\@writefile{toc}{\contentsline {section}{\numberline {5.4}main.\discretionary {\unhbox \voidb@x \hbox {\relax \fontsize  {7}{8}\selectfont  $\leftarrow \joinrel  \rhook $}}{}{}cpp File Reference}{18}{section.5.4}}
\newlabel{test_2src_2main_8cpp}{{5.4}{18}{main.\+cpp File Reference}{section.5.4}{}}
\@writefile{toc}{\contentsline {subsection}{\numberline {5.4.1}Function Documentation}{18}{subsection.5.4.1}}
\newlabel{test_2src_2main_8cpp_a3c04138a5bfe5d72780bb7e82a18e627}{{5.4.1}{18}{Function Documentation}{subsection.5.4.1}{}}
\@writefile{toc}{\contentsline {subsubsection}{\numberline {5.4.1.1}main()}{18}{subsubsection.5.4.1.1}}
\@writefile{toc}{\contentsline {section}{\numberline {5.5}test\discretionary {\unhbox \voidb@x \hbox {\relax \fontsize  {7}{8}\selectfont  $\leftarrow \joinrel  \rhook $}}{}{}D\discretionary {\unhbox \voidb@x \hbox {\relax \fontsize  {7}{8}\selectfont  $\leftarrow \joinrel  \rhook $}}{}{}N\discretionary {\unhbox \voidb@x \hbox {\relax \fontsize  {7}{8}\selectfont  $\leftarrow \joinrel  \rhook $}}{}{}S\discretionary {\unhbox \voidb@x \hbox {\relax \fontsize  {7}{8}\selectfont  $\leftarrow \joinrel  \rhook $}}{}{}Wire\discretionary {\unhbox \voidb@x \hbox {\relax \fontsize  {7}{8}\selectfont  $\leftarrow \joinrel  \rhook $}}{}{}Formatter.\discretionary {\unhbox \voidb@x \hbox {\relax \fontsize  {7}{8}\selectfont  $\leftarrow \joinrel  \rhook $}}{}{}cpp File Reference}{18}{section.5.5}}
\newlabel{testDNSWireFormatter_8cpp}{{5.5}{18}{test\+D\+N\+S\+Wire\+Formatter.\+cpp File Reference}{section.5.5}{}}
\@writefile{toc}{\contentsline {subsection}{\numberline {5.5.1}Function Documentation}{19}{subsection.5.5.1}}
\newlabel{testDNSWireFormatter_8cpp_aa3a73e9bae8a2292c2820909315556fe}{{5.5.1}{19}{Function Documentation}{subsection.5.5.1}{}}
\@writefile{toc}{\contentsline {subsubsection}{\numberline {5.5.1.1}TEST\_F()\hspace  {0.1cm}{\relax \fontsize  {8}{9.5}\selectfont  \abovedisplayskip 6\p@ plus2\p@ minus4\p@ \abovedisplayshortskip \z@ plus\p@ \belowdisplayshortskip 3\p@ plus\p@ minus2\p@ \def \leftmargin \leftmargini \parsep 4\p@ plus2\p@ minus\p@ \topsep 8\p@ plus2\p@ minus4\p@ \itemsep 4\p@ plus2\p@ minus\p@ {\leftmargin \leftmargini \topsep 3\p@ plus\p@ minus\p@ \parsep 2\p@ plus\p@ minus\p@ \itemsep \parsep }\belowdisplayskip \abovedisplayskip \ttfamily  [1/30]}}{20}{subsubsection.5.5.1.1}}
\newlabel{testDNSWireFormatter_8cpp_ab4697e27b775b62aa6defae1e145f2e6}{{5.5.1.1}{20}{\texorpdfstring {TEST\_F()}{TEST\_F()}\hspace {0.1cm}{\footnotesize \ttfamily [1/30]}}{subsubsection.5.5.1.1}{}}
\@writefile{toc}{\contentsline {subsubsection}{\numberline {5.5.1.2}TEST\_F()\hspace  {0.1cm}{\relax \fontsize  {8}{9.5}\selectfont  \abovedisplayskip 6\p@ plus2\p@ minus4\p@ \abovedisplayshortskip \z@ plus\p@ \belowdisplayshortskip 3\p@ plus\p@ minus2\p@ \def \leftmargin \leftmargini \parsep 4\p@ plus2\p@ minus\p@ \topsep 8\p@ plus2\p@ minus4\p@ \itemsep 4\p@ plus2\p@ minus\p@ {\leftmargin \leftmargini \topsep 3\p@ plus\p@ minus\p@ \parsep 2\p@ plus\p@ minus\p@ \itemsep \parsep }\belowdisplayskip \abovedisplayskip \ttfamily  [2/30]}}{20}{subsubsection.5.5.1.2}}
\newlabel{testDNSWireFormatter_8cpp_ac4d0176d2fc7573117afa9022d80bba1}{{5.5.1.2}{20}{\texorpdfstring {TEST\_F()}{TEST\_F()}\hspace {0.1cm}{\footnotesize \ttfamily [2/30]}}{subsubsection.5.5.1.2}{}}
\@writefile{toc}{\contentsline {subsubsection}{\numberline {5.5.1.3}TEST\_F()\hspace  {0.1cm}{\relax \fontsize  {8}{9.5}\selectfont  \abovedisplayskip 6\p@ plus2\p@ minus4\p@ \abovedisplayshortskip \z@ plus\p@ \belowdisplayshortskip 3\p@ plus\p@ minus2\p@ \def \leftmargin \leftmargini \parsep 4\p@ plus2\p@ minus\p@ \topsep 8\p@ plus2\p@ minus4\p@ \itemsep 4\p@ plus2\p@ minus\p@ {\leftmargin \leftmargini \topsep 3\p@ plus\p@ minus\p@ \parsep 2\p@ plus\p@ minus\p@ \itemsep \parsep }\belowdisplayskip \abovedisplayskip \ttfamily  [3/30]}}{20}{subsubsection.5.5.1.3}}
\newlabel{testDNSWireFormatter_8cpp_ac6e709c4f5b545d6f8a5c342668d5d82}{{5.5.1.3}{20}{\texorpdfstring {TEST\_F()}{TEST\_F()}\hspace {0.1cm}{\footnotesize \ttfamily [3/30]}}{subsubsection.5.5.1.3}{}}
\@writefile{toc}{\contentsline {subsubsection}{\numberline {5.5.1.4}TEST\_F()\hspace  {0.1cm}{\relax \fontsize  {8}{9.5}\selectfont  \abovedisplayskip 6\p@ plus2\p@ minus4\p@ \abovedisplayshortskip \z@ plus\p@ \belowdisplayshortskip 3\p@ plus\p@ minus2\p@ \def \leftmargin \leftmargini \parsep 4\p@ plus2\p@ minus\p@ \topsep 8\p@ plus2\p@ minus4\p@ \itemsep 4\p@ plus2\p@ minus\p@ {\leftmargin \leftmargini \topsep 3\p@ plus\p@ minus\p@ \parsep 2\p@ plus\p@ minus\p@ \itemsep \parsep }\belowdisplayskip \abovedisplayskip \ttfamily  [4/30]}}{21}{subsubsection.5.5.1.4}}
\newlabel{testDNSWireFormatter_8cpp_ad07ccd2ea1837cacec74454e77a8f101}{{5.5.1.4}{21}{\texorpdfstring {TEST\_F()}{TEST\_F()}\hspace {0.1cm}{\footnotesize \ttfamily [4/30]}}{subsubsection.5.5.1.4}{}}
\@writefile{toc}{\contentsline {subsubsection}{\numberline {5.5.1.5}TEST\_F()\hspace  {0.1cm}{\relax \fontsize  {8}{9.5}\selectfont  \abovedisplayskip 6\p@ plus2\p@ minus4\p@ \abovedisplayshortskip \z@ plus\p@ \belowdisplayshortskip 3\p@ plus\p@ minus2\p@ \def \leftmargin \leftmargini \parsep 4\p@ plus2\p@ minus\p@ \topsep 8\p@ plus2\p@ minus4\p@ \itemsep 4\p@ plus2\p@ minus\p@ {\leftmargin \leftmargini \topsep 3\p@ plus\p@ minus\p@ \parsep 2\p@ plus\p@ minus\p@ \itemsep \parsep }\belowdisplayskip \abovedisplayskip \ttfamily  [5/30]}}{21}{subsubsection.5.5.1.5}}
\newlabel{testDNSWireFormatter_8cpp_a1f4e25b336566f4b44e10b52227c95d1}{{5.5.1.5}{21}{\texorpdfstring {TEST\_F()}{TEST\_F()}\hspace {0.1cm}{\footnotesize \ttfamily [5/30]}}{subsubsection.5.5.1.5}{}}
\@writefile{toc}{\contentsline {subsubsection}{\numberline {5.5.1.6}TEST\_F()\hspace  {0.1cm}{\relax \fontsize  {8}{9.5}\selectfont  \abovedisplayskip 6\p@ plus2\p@ minus4\p@ \abovedisplayshortskip \z@ plus\p@ \belowdisplayshortskip 3\p@ plus\p@ minus2\p@ \def \leftmargin \leftmargini \parsep 4\p@ plus2\p@ minus\p@ \topsep 8\p@ plus2\p@ minus4\p@ \itemsep 4\p@ plus2\p@ minus\p@ {\leftmargin \leftmargini \topsep 3\p@ plus\p@ minus\p@ \parsep 2\p@ plus\p@ minus\p@ \itemsep \parsep }\belowdisplayskip \abovedisplayskip \ttfamily  [6/30]}}{21}{subsubsection.5.5.1.6}}
\newlabel{testDNSWireFormatter_8cpp_ab2e5abb1d382d0099a3388e9b0fba9cf}{{5.5.1.6}{21}{\texorpdfstring {TEST\_F()}{TEST\_F()}\hspace {0.1cm}{\footnotesize \ttfamily [6/30]}}{subsubsection.5.5.1.6}{}}
\@writefile{toc}{\contentsline {subsubsection}{\numberline {5.5.1.7}TEST\_F()\hspace  {0.1cm}{\relax \fontsize  {8}{9.5}\selectfont  \abovedisplayskip 6\p@ plus2\p@ minus4\p@ \abovedisplayshortskip \z@ plus\p@ \belowdisplayshortskip 3\p@ plus\p@ minus2\p@ \def \leftmargin \leftmargini \parsep 4\p@ plus2\p@ minus\p@ \topsep 8\p@ plus2\p@ minus4\p@ \itemsep 4\p@ plus2\p@ minus\p@ {\leftmargin \leftmargini \topsep 3\p@ plus\p@ minus\p@ \parsep 2\p@ plus\p@ minus\p@ \itemsep \parsep }\belowdisplayskip \abovedisplayskip \ttfamily  [7/30]}}{22}{subsubsection.5.5.1.7}}
\newlabel{testDNSWireFormatter_8cpp_a176f5dd4aecf427931b51bde3b43a164}{{5.5.1.7}{22}{\texorpdfstring {TEST\_F()}{TEST\_F()}\hspace {0.1cm}{\footnotesize \ttfamily [7/30]}}{subsubsection.5.5.1.7}{}}
\@writefile{toc}{\contentsline {subsubsection}{\numberline {5.5.1.8}TEST\_F()\hspace  {0.1cm}{\relax \fontsize  {8}{9.5}\selectfont  \abovedisplayskip 6\p@ plus2\p@ minus4\p@ \abovedisplayshortskip \z@ plus\p@ \belowdisplayshortskip 3\p@ plus\p@ minus2\p@ \def \leftmargin \leftmargini \parsep 4\p@ plus2\p@ minus\p@ \topsep 8\p@ plus2\p@ minus4\p@ \itemsep 4\p@ plus2\p@ minus\p@ {\leftmargin \leftmargini \topsep 3\p@ plus\p@ minus\p@ \parsep 2\p@ plus\p@ minus\p@ \itemsep \parsep }\belowdisplayskip \abovedisplayskip \ttfamily  [8/30]}}{22}{subsubsection.5.5.1.8}}
\newlabel{testDNSWireFormatter_8cpp_a88eb377c266ec75771a409a52dff0bb2}{{5.5.1.8}{22}{\texorpdfstring {TEST\_F()}{TEST\_F()}\hspace {0.1cm}{\footnotesize \ttfamily [8/30]}}{subsubsection.5.5.1.8}{}}
\@writefile{toc}{\contentsline {subsubsection}{\numberline {5.5.1.9}TEST\_F()\hspace  {0.1cm}{\relax \fontsize  {8}{9.5}\selectfont  \abovedisplayskip 6\p@ plus2\p@ minus4\p@ \abovedisplayshortskip \z@ plus\p@ \belowdisplayshortskip 3\p@ plus\p@ minus2\p@ \def \leftmargin \leftmargini \parsep 4\p@ plus2\p@ minus\p@ \topsep 8\p@ plus2\p@ minus4\p@ \itemsep 4\p@ plus2\p@ minus\p@ {\leftmargin \leftmargini \topsep 3\p@ plus\p@ minus\p@ \parsep 2\p@ plus\p@ minus\p@ \itemsep \parsep }\belowdisplayskip \abovedisplayskip \ttfamily  [9/30]}}{22}{subsubsection.5.5.1.9}}
\newlabel{testDNSWireFormatter_8cpp_acdf4dabd559b2e926dbb9be33b837792}{{5.5.1.9}{22}{\texorpdfstring {TEST\_F()}{TEST\_F()}\hspace {0.1cm}{\footnotesize \ttfamily [9/30]}}{subsubsection.5.5.1.9}{}}
\@writefile{toc}{\contentsline {subsubsection}{\numberline {5.5.1.10}TEST\_F()\hspace  {0.1cm}{\relax \fontsize  {8}{9.5}\selectfont  \abovedisplayskip 6\p@ plus2\p@ minus4\p@ \abovedisplayshortskip \z@ plus\p@ \belowdisplayshortskip 3\p@ plus\p@ minus2\p@ \def \leftmargin \leftmargini \parsep 4\p@ plus2\p@ minus\p@ \topsep 8\p@ plus2\p@ minus4\p@ \itemsep 4\p@ plus2\p@ minus\p@ {\leftmargin \leftmargini \topsep 3\p@ plus\p@ minus\p@ \parsep 2\p@ plus\p@ minus\p@ \itemsep \parsep }\belowdisplayskip \abovedisplayskip \ttfamily  [10/30]}}{23}{subsubsection.5.5.1.10}}
\newlabel{testDNSWireFormatter_8cpp_a3e27dc50bed4ef034b1e16c6148eda7a}{{5.5.1.10}{23}{\texorpdfstring {TEST\_F()}{TEST\_F()}\hspace {0.1cm}{\footnotesize \ttfamily [10/30]}}{subsubsection.5.5.1.10}{}}
\@writefile{toc}{\contentsline {subsubsection}{\numberline {5.5.1.11}TEST\_F()\hspace  {0.1cm}{\relax \fontsize  {8}{9.5}\selectfont  \abovedisplayskip 6\p@ plus2\p@ minus4\p@ \abovedisplayshortskip \z@ plus\p@ \belowdisplayshortskip 3\p@ plus\p@ minus2\p@ \def \leftmargin \leftmargini \parsep 4\p@ plus2\p@ minus\p@ \topsep 8\p@ plus2\p@ minus4\p@ \itemsep 4\p@ plus2\p@ minus\p@ {\leftmargin \leftmargini \topsep 3\p@ plus\p@ minus\p@ \parsep 2\p@ plus\p@ minus\p@ \itemsep \parsep }\belowdisplayskip \abovedisplayskip \ttfamily  [11/30]}}{23}{subsubsection.5.5.1.11}}
\newlabel{testDNSWireFormatter_8cpp_abca7258c0dd8845915cb722f0efd3b98}{{5.5.1.11}{23}{\texorpdfstring {TEST\_F()}{TEST\_F()}\hspace {0.1cm}{\footnotesize \ttfamily [11/30]}}{subsubsection.5.5.1.11}{}}
\@writefile{toc}{\contentsline {subsubsection}{\numberline {5.5.1.12}TEST\_F()\hspace  {0.1cm}{\relax \fontsize  {8}{9.5}\selectfont  \abovedisplayskip 6\p@ plus2\p@ minus4\p@ \abovedisplayshortskip \z@ plus\p@ \belowdisplayshortskip 3\p@ plus\p@ minus2\p@ \def \leftmargin \leftmargini \parsep 4\p@ plus2\p@ minus\p@ \topsep 8\p@ plus2\p@ minus4\p@ \itemsep 4\p@ plus2\p@ minus\p@ {\leftmargin \leftmargini \topsep 3\p@ plus\p@ minus\p@ \parsep 2\p@ plus\p@ minus\p@ \itemsep \parsep }\belowdisplayskip \abovedisplayskip \ttfamily  [12/30]}}{23}{subsubsection.5.5.1.12}}
\newlabel{testDNSWireFormatter_8cpp_a6f8d8defe9295f84e3db4b1790e4dcfa}{{5.5.1.12}{23}{\texorpdfstring {TEST\_F()}{TEST\_F()}\hspace {0.1cm}{\footnotesize \ttfamily [12/30]}}{subsubsection.5.5.1.12}{}}
\@writefile{toc}{\contentsline {subsubsection}{\numberline {5.5.1.13}TEST\_F()\hspace  {0.1cm}{\relax \fontsize  {8}{9.5}\selectfont  \abovedisplayskip 6\p@ plus2\p@ minus4\p@ \abovedisplayshortskip \z@ plus\p@ \belowdisplayshortskip 3\p@ plus\p@ minus2\p@ \def \leftmargin \leftmargini \parsep 4\p@ plus2\p@ minus\p@ \topsep 8\p@ plus2\p@ minus4\p@ \itemsep 4\p@ plus2\p@ minus\p@ {\leftmargin \leftmargini \topsep 3\p@ plus\p@ minus\p@ \parsep 2\p@ plus\p@ minus\p@ \itemsep \parsep }\belowdisplayskip \abovedisplayskip \ttfamily  [13/30]}}{24}{subsubsection.5.5.1.13}}
\newlabel{testDNSWireFormatter_8cpp_aff2851d63e87277b388a34a8fe4ac432}{{5.5.1.13}{24}{\texorpdfstring {TEST\_F()}{TEST\_F()}\hspace {0.1cm}{\footnotesize \ttfamily [13/30]}}{subsubsection.5.5.1.13}{}}
\@writefile{toc}{\contentsline {subsubsection}{\numberline {5.5.1.14}TEST\_F()\hspace  {0.1cm}{\relax \fontsize  {8}{9.5}\selectfont  \abovedisplayskip 6\p@ plus2\p@ minus4\p@ \abovedisplayshortskip \z@ plus\p@ \belowdisplayshortskip 3\p@ plus\p@ minus2\p@ \def \leftmargin \leftmargini \parsep 4\p@ plus2\p@ minus\p@ \topsep 8\p@ plus2\p@ minus4\p@ \itemsep 4\p@ plus2\p@ minus\p@ {\leftmargin \leftmargini \topsep 3\p@ plus\p@ minus\p@ \parsep 2\p@ plus\p@ minus\p@ \itemsep \parsep }\belowdisplayskip \abovedisplayskip \ttfamily  [14/30]}}{24}{subsubsection.5.5.1.14}}
\newlabel{testDNSWireFormatter_8cpp_a324f851f28a2e2b7d4d67396a277b5eb}{{5.5.1.14}{24}{\texorpdfstring {TEST\_F()}{TEST\_F()}\hspace {0.1cm}{\footnotesize \ttfamily [14/30]}}{subsubsection.5.5.1.14}{}}
\@writefile{toc}{\contentsline {subsubsection}{\numberline {5.5.1.15}TEST\_F()\hspace  {0.1cm}{\relax \fontsize  {8}{9.5}\selectfont  \abovedisplayskip 6\p@ plus2\p@ minus4\p@ \abovedisplayshortskip \z@ plus\p@ \belowdisplayshortskip 3\p@ plus\p@ minus2\p@ \def \leftmargin \leftmargini \parsep 4\p@ plus2\p@ minus\p@ \topsep 8\p@ plus2\p@ minus4\p@ \itemsep 4\p@ plus2\p@ minus\p@ {\leftmargin \leftmargini \topsep 3\p@ plus\p@ minus\p@ \parsep 2\p@ plus\p@ minus\p@ \itemsep \parsep }\belowdisplayskip \abovedisplayskip \ttfamily  [15/30]}}{24}{subsubsection.5.5.1.15}}
\newlabel{testDNSWireFormatter_8cpp_a457d607826527be0585b4aa3253df5a9}{{5.5.1.15}{24}{\texorpdfstring {TEST\_F()}{TEST\_F()}\hspace {0.1cm}{\footnotesize \ttfamily [15/30]}}{subsubsection.5.5.1.15}{}}
\@writefile{toc}{\contentsline {subsubsection}{\numberline {5.5.1.16}TEST\_F()\hspace  {0.1cm}{\relax \fontsize  {8}{9.5}\selectfont  \abovedisplayskip 6\p@ plus2\p@ minus4\p@ \abovedisplayshortskip \z@ plus\p@ \belowdisplayshortskip 3\p@ plus\p@ minus2\p@ \def \leftmargin \leftmargini \parsep 4\p@ plus2\p@ minus\p@ \topsep 8\p@ plus2\p@ minus4\p@ \itemsep 4\p@ plus2\p@ minus\p@ {\leftmargin \leftmargini \topsep 3\p@ plus\p@ minus\p@ \parsep 2\p@ plus\p@ minus\p@ \itemsep \parsep }\belowdisplayskip \abovedisplayskip \ttfamily  [16/30]}}{25}{subsubsection.5.5.1.16}}
\newlabel{testDNSWireFormatter_8cpp_abb893005161c7e1d32dab291af5c4591}{{5.5.1.16}{25}{\texorpdfstring {TEST\_F()}{TEST\_F()}\hspace {0.1cm}{\footnotesize \ttfamily [16/30]}}{subsubsection.5.5.1.16}{}}
\@writefile{toc}{\contentsline {subsubsection}{\numberline {5.5.1.17}TEST\_F()\hspace  {0.1cm}{\relax \fontsize  {8}{9.5}\selectfont  \abovedisplayskip 6\p@ plus2\p@ minus4\p@ \abovedisplayshortskip \z@ plus\p@ \belowdisplayshortskip 3\p@ plus\p@ minus2\p@ \def \leftmargin \leftmargini \parsep 4\p@ plus2\p@ minus\p@ \topsep 8\p@ plus2\p@ minus4\p@ \itemsep 4\p@ plus2\p@ minus\p@ {\leftmargin \leftmargini \topsep 3\p@ plus\p@ minus\p@ \parsep 2\p@ plus\p@ minus\p@ \itemsep \parsep }\belowdisplayskip \abovedisplayskip \ttfamily  [17/30]}}{25}{subsubsection.5.5.1.17}}
\newlabel{testDNSWireFormatter_8cpp_aaa9b36f545e456360ec5b363b5e64dbb}{{5.5.1.17}{25}{\texorpdfstring {TEST\_F()}{TEST\_F()}\hspace {0.1cm}{\footnotesize \ttfamily [17/30]}}{subsubsection.5.5.1.17}{}}
\@writefile{toc}{\contentsline {subsubsection}{\numberline {5.5.1.18}TEST\_F()\hspace  {0.1cm}{\relax \fontsize  {8}{9.5}\selectfont  \abovedisplayskip 6\p@ plus2\p@ minus4\p@ \abovedisplayshortskip \z@ plus\p@ \belowdisplayshortskip 3\p@ plus\p@ minus2\p@ \def \leftmargin \leftmargini \parsep 4\p@ plus2\p@ minus\p@ \topsep 8\p@ plus2\p@ minus4\p@ \itemsep 4\p@ plus2\p@ minus\p@ {\leftmargin \leftmargini \topsep 3\p@ plus\p@ minus\p@ \parsep 2\p@ plus\p@ minus\p@ \itemsep \parsep }\belowdisplayskip \abovedisplayskip \ttfamily  [18/30]}}{25}{subsubsection.5.5.1.18}}
\newlabel{testDNSWireFormatter_8cpp_a33b254952fdc84de00e63b539a227f9e}{{5.5.1.18}{25}{\texorpdfstring {TEST\_F()}{TEST\_F()}\hspace {0.1cm}{\footnotesize \ttfamily [18/30]}}{subsubsection.5.5.1.18}{}}
\@writefile{toc}{\contentsline {subsubsection}{\numberline {5.5.1.19}TEST\_F()\hspace  {0.1cm}{\relax \fontsize  {8}{9.5}\selectfont  \abovedisplayskip 6\p@ plus2\p@ minus4\p@ \abovedisplayshortskip \z@ plus\p@ \belowdisplayshortskip 3\p@ plus\p@ minus2\p@ \def \leftmargin \leftmargini \parsep 4\p@ plus2\p@ minus\p@ \topsep 8\p@ plus2\p@ minus4\p@ \itemsep 4\p@ plus2\p@ minus\p@ {\leftmargin \leftmargini \topsep 3\p@ plus\p@ minus\p@ \parsep 2\p@ plus\p@ minus\p@ \itemsep \parsep }\belowdisplayskip \abovedisplayskip \ttfamily  [19/30]}}{26}{subsubsection.5.5.1.19}}
\newlabel{testDNSWireFormatter_8cpp_a1bb0042fba0010ad25c668acdd138884}{{5.5.1.19}{26}{\texorpdfstring {TEST\_F()}{TEST\_F()}\hspace {0.1cm}{\footnotesize \ttfamily [19/30]}}{subsubsection.5.5.1.19}{}}
\@writefile{toc}{\contentsline {subsubsection}{\numberline {5.5.1.20}TEST\_F()\hspace  {0.1cm}{\relax \fontsize  {8}{9.5}\selectfont  \abovedisplayskip 6\p@ plus2\p@ minus4\p@ \abovedisplayshortskip \z@ plus\p@ \belowdisplayshortskip 3\p@ plus\p@ minus2\p@ \def \leftmargin \leftmargini \parsep 4\p@ plus2\p@ minus\p@ \topsep 8\p@ plus2\p@ minus4\p@ \itemsep 4\p@ plus2\p@ minus\p@ {\leftmargin \leftmargini \topsep 3\p@ plus\p@ minus\p@ \parsep 2\p@ plus\p@ minus\p@ \itemsep \parsep }\belowdisplayskip \abovedisplayskip \ttfamily  [20/30]}}{26}{subsubsection.5.5.1.20}}
\newlabel{testDNSWireFormatter_8cpp_a5711571b606ba7fd81e7f8355e463894}{{5.5.1.20}{26}{\texorpdfstring {TEST\_F()}{TEST\_F()}\hspace {0.1cm}{\footnotesize \ttfamily [20/30]}}{subsubsection.5.5.1.20}{}}
\@writefile{toc}{\contentsline {subsubsection}{\numberline {5.5.1.21}TEST\_F()\hspace  {0.1cm}{\relax \fontsize  {8}{9.5}\selectfont  \abovedisplayskip 6\p@ plus2\p@ minus4\p@ \abovedisplayshortskip \z@ plus\p@ \belowdisplayshortskip 3\p@ plus\p@ minus2\p@ \def \leftmargin \leftmargini \parsep 4\p@ plus2\p@ minus\p@ \topsep 8\p@ plus2\p@ minus4\p@ \itemsep 4\p@ plus2\p@ minus\p@ {\leftmargin \leftmargini \topsep 3\p@ plus\p@ minus\p@ \parsep 2\p@ plus\p@ minus\p@ \itemsep \parsep }\belowdisplayskip \abovedisplayskip \ttfamily  [21/30]}}{26}{subsubsection.5.5.1.21}}
\newlabel{testDNSWireFormatter_8cpp_a4d5b57cb8d0c04c495623c8b80b4dcbd}{{5.5.1.21}{26}{\texorpdfstring {TEST\_F()}{TEST\_F()}\hspace {0.1cm}{\footnotesize \ttfamily [21/30]}}{subsubsection.5.5.1.21}{}}
\@writefile{toc}{\contentsline {subsubsection}{\numberline {5.5.1.22}TEST\_F()\hspace  {0.1cm}{\relax \fontsize  {8}{9.5}\selectfont  \abovedisplayskip 6\p@ plus2\p@ minus4\p@ \abovedisplayshortskip \z@ plus\p@ \belowdisplayshortskip 3\p@ plus\p@ minus2\p@ \def \leftmargin \leftmargini \parsep 4\p@ plus2\p@ minus\p@ \topsep 8\p@ plus2\p@ minus4\p@ \itemsep 4\p@ plus2\p@ minus\p@ {\leftmargin \leftmargini \topsep 3\p@ plus\p@ minus\p@ \parsep 2\p@ plus\p@ minus\p@ \itemsep \parsep }\belowdisplayskip \abovedisplayskip \ttfamily  [22/30]}}{27}{subsubsection.5.5.1.22}}
\newlabel{testDNSWireFormatter_8cpp_a9ea891745b36800ed3e131ad53080472}{{5.5.1.22}{27}{\texorpdfstring {TEST\_F()}{TEST\_F()}\hspace {0.1cm}{\footnotesize \ttfamily [22/30]}}{subsubsection.5.5.1.22}{}}
\@writefile{toc}{\contentsline {subsubsection}{\numberline {5.5.1.23}TEST\_F()\hspace  {0.1cm}{\relax \fontsize  {8}{9.5}\selectfont  \abovedisplayskip 6\p@ plus2\p@ minus4\p@ \abovedisplayshortskip \z@ plus\p@ \belowdisplayshortskip 3\p@ plus\p@ minus2\p@ \def \leftmargin \leftmargini \parsep 4\p@ plus2\p@ minus\p@ \topsep 8\p@ plus2\p@ minus4\p@ \itemsep 4\p@ plus2\p@ minus\p@ {\leftmargin \leftmargini \topsep 3\p@ plus\p@ minus\p@ \parsep 2\p@ plus\p@ minus\p@ \itemsep \parsep }\belowdisplayskip \abovedisplayskip \ttfamily  [23/30]}}{27}{subsubsection.5.5.1.23}}
\newlabel{testDNSWireFormatter_8cpp_a4dceb63e37f3c7238f6a7b8ff2406c25}{{5.5.1.23}{27}{\texorpdfstring {TEST\_F()}{TEST\_F()}\hspace {0.1cm}{\footnotesize \ttfamily [23/30]}}{subsubsection.5.5.1.23}{}}
\@writefile{toc}{\contentsline {subsubsection}{\numberline {5.5.1.24}TEST\_F()\hspace  {0.1cm}{\relax \fontsize  {8}{9.5}\selectfont  \abovedisplayskip 6\p@ plus2\p@ minus4\p@ \abovedisplayshortskip \z@ plus\p@ \belowdisplayshortskip 3\p@ plus\p@ minus2\p@ \def \leftmargin \leftmargini \parsep 4\p@ plus2\p@ minus\p@ \topsep 8\p@ plus2\p@ minus4\p@ \itemsep 4\p@ plus2\p@ minus\p@ {\leftmargin \leftmargini \topsep 3\p@ plus\p@ minus\p@ \parsep 2\p@ plus\p@ minus\p@ \itemsep \parsep }\belowdisplayskip \abovedisplayskip \ttfamily  [24/30]}}{27}{subsubsection.5.5.1.24}}
\newlabel{testDNSWireFormatter_8cpp_abc0c72b69a691dc143e9311eb78d20aa}{{5.5.1.24}{27}{\texorpdfstring {TEST\_F()}{TEST\_F()}\hspace {0.1cm}{\footnotesize \ttfamily [24/30]}}{subsubsection.5.5.1.24}{}}
\@writefile{toc}{\contentsline {subsubsection}{\numberline {5.5.1.25}TEST\_F()\hspace  {0.1cm}{\relax \fontsize  {8}{9.5}\selectfont  \abovedisplayskip 6\p@ plus2\p@ minus4\p@ \abovedisplayshortskip \z@ plus\p@ \belowdisplayshortskip 3\p@ plus\p@ minus2\p@ \def \leftmargin \leftmargini \parsep 4\p@ plus2\p@ minus\p@ \topsep 8\p@ plus2\p@ minus4\p@ \itemsep 4\p@ plus2\p@ minus\p@ {\leftmargin \leftmargini \topsep 3\p@ plus\p@ minus\p@ \parsep 2\p@ plus\p@ minus\p@ \itemsep \parsep }\belowdisplayskip \abovedisplayskip \ttfamily  [25/30]}}{28}{subsubsection.5.5.1.25}}
\newlabel{testDNSWireFormatter_8cpp_af04a15d4c1f9b1a70a55dbd26a6831d5}{{5.5.1.25}{28}{\texorpdfstring {TEST\_F()}{TEST\_F()}\hspace {0.1cm}{\footnotesize \ttfamily [25/30]}}{subsubsection.5.5.1.25}{}}
\@writefile{toc}{\contentsline {subsubsection}{\numberline {5.5.1.26}TEST\_F()\hspace  {0.1cm}{\relax \fontsize  {8}{9.5}\selectfont  \abovedisplayskip 6\p@ plus2\p@ minus4\p@ \abovedisplayshortskip \z@ plus\p@ \belowdisplayshortskip 3\p@ plus\p@ minus2\p@ \def \leftmargin \leftmargini \parsep 4\p@ plus2\p@ minus\p@ \topsep 8\p@ plus2\p@ minus4\p@ \itemsep 4\p@ plus2\p@ minus\p@ {\leftmargin \leftmargini \topsep 3\p@ plus\p@ minus\p@ \parsep 2\p@ plus\p@ minus\p@ \itemsep \parsep }\belowdisplayskip \abovedisplayskip \ttfamily  [26/30]}}{28}{subsubsection.5.5.1.26}}
\newlabel{testDNSWireFormatter_8cpp_a07eb7e915c5b7ec5eab6c2d6de42ab0f}{{5.5.1.26}{28}{\texorpdfstring {TEST\_F()}{TEST\_F()}\hspace {0.1cm}{\footnotesize \ttfamily [26/30]}}{subsubsection.5.5.1.26}{}}
\@writefile{toc}{\contentsline {subsubsection}{\numberline {5.5.1.27}TEST\_F()\hspace  {0.1cm}{\relax \fontsize  {8}{9.5}\selectfont  \abovedisplayskip 6\p@ plus2\p@ minus4\p@ \abovedisplayshortskip \z@ plus\p@ \belowdisplayshortskip 3\p@ plus\p@ minus2\p@ \def \leftmargin \leftmargini \parsep 4\p@ plus2\p@ minus\p@ \topsep 8\p@ plus2\p@ minus4\p@ \itemsep 4\p@ plus2\p@ minus\p@ {\leftmargin \leftmargini \topsep 3\p@ plus\p@ minus\p@ \parsep 2\p@ plus\p@ minus\p@ \itemsep \parsep }\belowdisplayskip \abovedisplayskip \ttfamily  [27/30]}}{28}{subsubsection.5.5.1.27}}
\newlabel{testDNSWireFormatter_8cpp_a86180e090d56b26ada1fdb2051a1db9e}{{5.5.1.27}{28}{\texorpdfstring {TEST\_F()}{TEST\_F()}\hspace {0.1cm}{\footnotesize \ttfamily [27/30]}}{subsubsection.5.5.1.27}{}}
\@writefile{toc}{\contentsline {subsubsection}{\numberline {5.5.1.28}TEST\_F()\hspace  {0.1cm}{\relax \fontsize  {8}{9.5}\selectfont  \abovedisplayskip 6\p@ plus2\p@ minus4\p@ \abovedisplayshortskip \z@ plus\p@ \belowdisplayshortskip 3\p@ plus\p@ minus2\p@ \def \leftmargin \leftmargini \parsep 4\p@ plus2\p@ minus\p@ \topsep 8\p@ plus2\p@ minus4\p@ \itemsep 4\p@ plus2\p@ minus\p@ {\leftmargin \leftmargini \topsep 3\p@ plus\p@ minus\p@ \parsep 2\p@ plus\p@ minus\p@ \itemsep \parsep }\belowdisplayskip \abovedisplayskip \ttfamily  [28/30]}}{29}{subsubsection.5.5.1.28}}
\newlabel{testDNSWireFormatter_8cpp_a8b249b605c1d0ff3af697c4c5d2648ac}{{5.5.1.28}{29}{\texorpdfstring {TEST\_F()}{TEST\_F()}\hspace {0.1cm}{\footnotesize \ttfamily [28/30]}}{subsubsection.5.5.1.28}{}}
\@writefile{toc}{\contentsline {subsubsection}{\numberline {5.5.1.29}TEST\_F()\hspace  {0.1cm}{\relax \fontsize  {8}{9.5}\selectfont  \abovedisplayskip 6\p@ plus2\p@ minus4\p@ \abovedisplayshortskip \z@ plus\p@ \belowdisplayshortskip 3\p@ plus\p@ minus2\p@ \def \leftmargin \leftmargini \parsep 4\p@ plus2\p@ minus\p@ \topsep 8\p@ plus2\p@ minus4\p@ \itemsep 4\p@ plus2\p@ minus\p@ {\leftmargin \leftmargini \topsep 3\p@ plus\p@ minus\p@ \parsep 2\p@ plus\p@ minus\p@ \itemsep \parsep }\belowdisplayskip \abovedisplayskip \ttfamily  [29/30]}}{29}{subsubsection.5.5.1.29}}
\newlabel{testDNSWireFormatter_8cpp_ad82bb1d2326b921f1bc1bfdff571f28b}{{5.5.1.29}{29}{\texorpdfstring {TEST\_F()}{TEST\_F()}\hspace {0.1cm}{\footnotesize \ttfamily [29/30]}}{subsubsection.5.5.1.29}{}}
\@writefile{toc}{\contentsline {subsubsection}{\numberline {5.5.1.30}TEST\_F()\hspace  {0.1cm}{\relax \fontsize  {8}{9.5}\selectfont  \abovedisplayskip 6\p@ plus2\p@ minus4\p@ \abovedisplayshortskip \z@ plus\p@ \belowdisplayshortskip 3\p@ plus\p@ minus2\p@ \def \leftmargin \leftmargini \parsep 4\p@ plus2\p@ minus\p@ \topsep 8\p@ plus2\p@ minus4\p@ \itemsep 4\p@ plus2\p@ minus\p@ {\leftmargin \leftmargini \topsep 3\p@ plus\p@ minus\p@ \parsep 2\p@ plus\p@ minus\p@ \itemsep \parsep }\belowdisplayskip \abovedisplayskip \ttfamily  [30/30]}}{29}{subsubsection.5.5.1.30}}
\@writefile{toc}{\contentsline {subsection}{\numberline {5.5.2}Variable Documentation}{29}{subsection.5.5.2}}
\newlabel{testDNSWireFormatter_8cpp_a7aa0ec4777558e869aa9b95a616b3b68}{{5.5.2}{29}{Variable Documentation}{subsection.5.5.2}{}}
\@writefile{toc}{\contentsline {subsubsection}{\numberline {5.5.2.1}ROOT\_OCTET\_VALUE}{29}{subsubsection.5.5.2.1}}
\@writefile{toc}{\contentsline {section}{\numberline {5.6}test\discretionary {\unhbox \voidb@x \hbox {\relax \fontsize  {7}{8}\selectfont  $\leftarrow \joinrel  \rhook $}}{}{}D\discretionary {\unhbox \voidb@x \hbox {\relax \fontsize  {7}{8}\selectfont  $\leftarrow \joinrel  \rhook $}}{}{}N\discretionary {\unhbox \voidb@x \hbox {\relax \fontsize  {7}{8}\selectfont  $\leftarrow \joinrel  \rhook $}}{}{}S\discretionary {\unhbox \voidb@x \hbox {\relax \fontsize  {7}{8}\selectfont  $\leftarrow \joinrel  \rhook $}}{}{}Wire\discretionary {\unhbox \voidb@x \hbox {\relax \fontsize  {7}{8}\selectfont  $\leftarrow \joinrel  \rhook $}}{}{}Formatter.\discretionary {\unhbox \voidb@x \hbox {\relax \fontsize  {7}{8}\selectfont  $\leftarrow \joinrel  \rhook $}}{}{}h File Reference}{30}{section.5.6}}
\newlabel{testDNSWireFormatter_8h}{{5.6}{30}{test\+D\+N\+S\+Wire\+Formatter.\+h File Reference}{section.5.6}{}}
\@writefile{toc}{\contentsline {chapter}{Index}{31}{section*.13}}
